{
    "tablename": "users",
    "description": "Features users list with is ad key",
    "users": {
        "5f719041-8574-4ba5-a14e-62442223a27c": {
            "role": "student",
            "id": "5f719041-8574-4ba5-a14e-62442223a27c",
            "firstname": "Smeagol",
            "lastname": "Hobbit",
            "fullname": "Smeagol Hobbit",
            "username": "s.hobbit@mordor.me"
        },
        "ae3f1ff1-818b-4a28-8a84-2517f0d57ef8": {
            "role": "student",
            "id": "ae3f1ff1-818b-4a28-8a84-2517f0d57ef8",
            "firstname": "Frodo",
            "lastname": "Baggins",
            "fullname": "Frodo Baggins",
            "username": "f.baggins@underhill.me"
        }
    }
}